{
  "stats": {
    "suites": 6,
    "tests": 5,
    "passes": 5,
    "pending": 0,
    "failures": 0,
    "start": "2019-10-17T06:56:09.615Z",
    "end": "2019-10-17T06:56:09.622Z",
    "duration": 7,
    "testsRegistered": 5,
    "passPercent": 100,
    "pendingPercent": 0,
    "other": 0,
    "hasOther": false,
    "skipped": 0,
    "hasSkipped": false,
    "passPercentClass": "success",
    "pendingPercentClass": "danger"
  },
  "suites": {
    "title": "",
    "suites": [
      {
        "title": "Test Calculator",
        "suites": [
          {
            "title": "functions plus",
            "suites": [],
            "tests": [
              {
                "title": "1 + 1 should be 2",
                "fullTitle": "Test Calculator functions plus 1 + 1 should be 2",
                "timedOut": false,
                "duration": 0,
                "state": "passed",
                "speed": "fast",
                "pass": true,
                "fail": false,
                "pending": false,
                "code": "assert.equal(2, calculate.plus(1, 1))",
                "err": {},
                "isRoot": false,
                "uuid": "e5f37aea-b70a-45d1-a42b-3568e0ac8245",
                "parentUUID": "dfa208aa-51e1-4064-8003-c7da26c7f028",
                "isHook": false,
                "skipped": false
              }
            ],
            "pending": [],
            "root": false,
            "_timeout": 2000,
            "file": "/test/test.js",
            "uuid": "dfa208aa-51e1-4064-8003-c7da26c7f028",
            "beforeHooks": [],
            "afterHooks": [],
            "fullFile": "/Users/wirawatb/Documents/test/test/test.js",
            "passes": [
              {
                "title": "1 + 1 should be 2",
                "fullTitle": "Test Calculator functions plus 1 + 1 should be 2",
                "timedOut": false,
                "duration": 0,
                "state": "passed",
                "speed": "fast",
                "pass": true,
                "fail": false,
                "pending": false,
                "code": "assert.equal(2, calculate.plus(1, 1))",
                "err": {},
                "isRoot": false,
                "uuid": "e5f37aea-b70a-45d1-a42b-3568e0ac8245",
                "parentUUID": "dfa208aa-51e1-4064-8003-c7da26c7f028",
                "isHook": false,
                "skipped": false
              }
            ],
            "failures": [],
            "skipped": [],
            "hasBeforeHooks": false,
            "hasAfterHooks": false,
            "hasTests": true,
            "hasSuites": false,
            "totalTests": 1,
            "totalPasses": 1,
            "totalFailures": 0,
            "totalPending": 0,
            "totalSkipped": 0,
            "hasPasses": true,
            "hasFailures": false,
            "hasPending": false,
            "hasSkipped": false,
            "duration": 0,
            "rootEmpty": false
          },
          {
            "title": "functions minus",
            "suites": [],
            "tests": [
              {
                "title": "1 - 1 should be 0",
                "fullTitle": "Test Calculator functions minus 1 - 1 should be 0",
                "timedOut": false,
                "duration": 0,
                "state": "passed",
                "speed": "fast",
                "pass": true,
                "fail": false,
                "pending": false,
                "code": "assert.equal(0, calculate.minus(1, 1))",
                "err": {},
                "isRoot": false,
                "uuid": "5c2c2c97-6ff2-4d14-83b8-b93b4c531f59",
                "parentUUID": "11aae8ac-c67c-44ff-b4cc-333bb34c97e7",
                "isHook": false,
                "skipped": false
              }
            ],
            "pending": [],
            "root": false,
            "_timeout": 2000,
            "file": "/test/test.js",
            "uuid": "11aae8ac-c67c-44ff-b4cc-333bb34c97e7",
            "beforeHooks": [],
            "afterHooks": [],
            "fullFile": "/Users/wirawatb/Documents/test/test/test.js",
            "passes": [
              {
                "title": "1 - 1 should be 0",
                "fullTitle": "Test Calculator functions minus 1 - 1 should be 0",
                "timedOut": false,
                "duration": 0,
                "state": "passed",
                "speed": "fast",
                "pass": true,
                "fail": false,
                "pending": false,
                "code": "assert.equal(0, calculate.minus(1, 1))",
                "err": {},
                "isRoot": false,
                "uuid": "5c2c2c97-6ff2-4d14-83b8-b93b4c531f59",
                "parentUUID": "11aae8ac-c67c-44ff-b4cc-333bb34c97e7",
                "isHook": false,
                "skipped": false
              }
            ],
            "failures": [],
            "skipped": [],
            "hasBeforeHooks": false,
            "hasAfterHooks": false,
            "hasTests": true,
            "hasSuites": false,
            "totalTests": 1,
            "totalPasses": 1,
            "totalFailures": 0,
            "totalPending": 0,
            "totalSkipped": 0,
            "hasPasses": true,
            "hasFailures": false,
            "hasPending": false,
            "hasSkipped": false,
            "duration": 0,
            "rootEmpty": false
          },
          {
            "title": "functions multiply",
            "suites": [],
            "tests": [
              {
                "title": "1 * 1 should be 1",
                "fullTitle": "Test Calculator functions multiply 1 * 1 should be 1",
                "timedOut": false,
                "duration": 0,
                "state": "passed",
                "speed": "fast",
                "pass": true,
                "fail": false,
                "pending": false,
                "code": "assert.equal(1, calculate.multiply(1, 1))",
                "err": {},
                "isRoot": false,
                "uuid": "01448367-c884-401b-9064-434186532122",
                "parentUUID": "feae6e19-6e35-43f5-a550-f3871184b736",
                "isHook": false,
                "skipped": false
              }
            ],
            "pending": [],
            "root": false,
            "_timeout": 2000,
            "file": "/test/test.js",
            "uuid": "feae6e19-6e35-43f5-a550-f3871184b736",
            "beforeHooks": [],
            "afterHooks": [],
            "fullFile": "/Users/wirawatb/Documents/test/test/test.js",
            "passes": [
              {
                "title": "1 * 1 should be 1",
                "fullTitle": "Test Calculator functions multiply 1 * 1 should be 1",
                "timedOut": false,
                "duration": 0,
                "state": "passed",
                "speed": "fast",
                "pass": true,
                "fail": false,
                "pending": false,
                "code": "assert.equal(1, calculate.multiply(1, 1))",
                "err": {},
                "isRoot": false,
                "uuid": "01448367-c884-401b-9064-434186532122",
                "parentUUID": "feae6e19-6e35-43f5-a550-f3871184b736",
                "isHook": false,
                "skipped": false
              }
            ],
            "failures": [],
            "skipped": [],
            "hasBeforeHooks": false,
            "hasAfterHooks": false,
            "hasTests": true,
            "hasSuites": false,
            "totalTests": 1,
            "totalPasses": 1,
            "totalFailures": 0,
            "totalPending": 0,
            "totalSkipped": 0,
            "hasPasses": true,
            "hasFailures": false,
            "hasPending": false,
            "hasSkipped": false,
            "duration": 0,
            "rootEmpty": false
          },
          {
            "title": "functions devide",
            "suites": [],
            "tests": [
              {
                "title": "1 / 1 should be 1",
                "fullTitle": "Test Calculator functions devide 1 / 1 should be 1",
                "timedOut": false,
                "duration": 0,
                "state": "passed",
                "speed": "fast",
                "pass": true,
                "fail": false,
                "pending": false,
                "code": "assert.equal(1, calculate.devide(1, 1))",
                "err": {},
                "isRoot": false,
                "uuid": "e3c8d341-4106-4b14-a662-d437d6df8754",
                "parentUUID": "6aaa5464-4c48-43f6-b92d-de570a16bf33",
                "isHook": false,
                "skipped": false
              }
            ],
            "pending": [],
            "root": false,
            "_timeout": 2000,
            "file": "/test/test.js",
            "uuid": "6aaa5464-4c48-43f6-b92d-de570a16bf33",
            "beforeHooks": [],
            "afterHooks": [],
            "fullFile": "/Users/wirawatb/Documents/test/test/test.js",
            "passes": [
              {
                "title": "1 / 1 should be 1",
                "fullTitle": "Test Calculator functions devide 1 / 1 should be 1",
                "timedOut": false,
                "duration": 0,
                "state": "passed",
                "speed": "fast",
                "pass": true,
                "fail": false,
                "pending": false,
                "code": "assert.equal(1, calculate.devide(1, 1))",
                "err": {},
                "isRoot": false,
                "uuid": "e3c8d341-4106-4b14-a662-d437d6df8754",
                "parentUUID": "6aaa5464-4c48-43f6-b92d-de570a16bf33",
                "isHook": false,
                "skipped": false
              }
            ],
            "failures": [],
            "skipped": [],
            "hasBeforeHooks": false,
            "hasAfterHooks": false,
            "hasTests": true,
            "hasSuites": false,
            "totalTests": 1,
            "totalPasses": 1,
            "totalFailures": 0,
            "totalPending": 0,
            "totalSkipped": 0,
            "hasPasses": true,
            "hasFailures": false,
            "hasPending": false,
            "hasSkipped": false,
            "duration": 0,
            "rootEmpty": false
          },
          {
            "title": "functions devide by zero",
            "suites": [],
            "tests": [
              {
                "title": "1 / 0 should be 0",
                "fullTitle": "Test Calculator functions devide by zero 1 / 0 should be 0",
                "timedOut": false,
                "duration": 1,
                "state": "passed",
                "speed": "fast",
                "pass": true,
                "fail": false,
                "pending": false,
                "code": "assert.equal(0, calculate.devide(1, 0))",
                "err": {},
                "isRoot": false,
                "uuid": "28d233e3-de7d-46d1-bf7e-50043c7264e9",
                "parentUUID": "5bda5007-3acb-4c3a-b3db-51d372b68c19",
                "isHook": false,
                "skipped": false
              }
            ],
            "pending": [],
            "root": false,
            "_timeout": 2000,
            "file": "/test/test.js",
            "uuid": "5bda5007-3acb-4c3a-b3db-51d372b68c19",
            "beforeHooks": [],
            "afterHooks": [],
            "fullFile": "/Users/wirawatb/Documents/test/test/test.js",
            "passes": [
              {
                "title": "1 / 0 should be 0",
                "fullTitle": "Test Calculator functions devide by zero 1 / 0 should be 0",
                "timedOut": false,
                "duration": 1,
                "state": "passed",
                "speed": "fast",
                "pass": true,
                "fail": false,
                "pending": false,
                "code": "assert.equal(0, calculate.devide(1, 0))",
                "err": {},
                "isRoot": false,
                "uuid": "28d233e3-de7d-46d1-bf7e-50043c7264e9",
                "parentUUID": "5bda5007-3acb-4c3a-b3db-51d372b68c19",
                "isHook": false,
                "skipped": false
              }
            ],
            "failures": [],
            "skipped": [],
            "hasBeforeHooks": false,
            "hasAfterHooks": false,
            "hasTests": true,
            "hasSuites": false,
            "totalTests": 1,
            "totalPasses": 1,
            "totalFailures": 0,
            "totalPending": 0,
            "totalSkipped": 0,
            "hasPasses": true,
            "hasFailures": false,
            "hasPending": false,
            "hasSkipped": false,
            "duration": 1,
            "rootEmpty": false
          }
        ],
        "tests": [],
        "pending": [],
        "root": false,
        "_timeout": 2000,
        "file": "/test/test.js",
        "uuid": "11f093d2-4b4d-4ded-adb6-41f2de93143d",
        "beforeHooks": [],
        "afterHooks": [],
        "fullFile": "/Users/wirawatb/Documents/test/test/test.js",
        "passes": [],
        "failures": [],
        "skipped": [],
        "hasBeforeHooks": false,
        "hasAfterHooks": false,
        "hasTests": false,
        "hasSuites": true,
        "totalTests": 0,
        "totalPasses": 0,
        "totalFailures": 0,
        "totalPending": 0,
        "totalSkipped": 0,
        "hasPasses": false,
        "hasFailures": false,
        "hasPending": false,
        "hasSkipped": false,
        "duration": 0,
        "rootEmpty": false
      }
    ],
    "tests": [],
    "pending": [],
    "root": true,
    "_timeout": 2000,
    "uuid": "d3e11528-2694-4d96-b9fe-03184a785624",
    "beforeHooks": [],
    "afterHooks": [],
    "fullFile": "",
    "file": "",
    "passes": [],
    "failures": [],
    "skipped": [],
    "hasBeforeHooks": false,
    "hasAfterHooks": false,
    "hasTests": false,
    "hasSuites": true,
    "totalTests": 0,
    "totalPasses": 0,
    "totalFailures": 0,
    "totalPending": 0,
    "totalSkipped": 0,
    "hasPasses": false,
    "hasFailures": false,
    "hasPending": false,
    "hasSkipped": false,
    "duration": 0,
    "rootEmpty": true
  },
  "allTests": [
    {
      "title": "1 + 1 should be 2",
      "fullTitle": "functions plus 1 + 1 should be 2",
      "timedOut": false,
      "duration": 0,
      "state": "passed",
      "speed": "fast",
      "pass": true,
      "fail": false,
      "pending": false,
      "code": "assert.equal(2, calculate.plus(1, 1))",
      "err": {},
      "isRoot": false,
      "uuid": "e5f37aea-b70a-45d1-a42b-3568e0ac8245",
      "parentUUID": "dfa208aa-51e1-4064-8003-c7da26c7f028",
      "isHook": false,
      "skipped": false
    },
    {
      "title": "1 - 1 should be 0",
      "fullTitle": "functions minus 1 - 1 should be 0",
      "timedOut": false,
      "duration": 0,
      "state": "passed",
      "speed": "fast",
      "pass": true,
      "fail": false,
      "pending": false,
      "code": "assert.equal(0, calculate.minus(1, 1))",
      "err": {},
      "isRoot": false,
      "uuid": "5c2c2c97-6ff2-4d14-83b8-b93b4c531f59",
      "parentUUID": "11aae8ac-c67c-44ff-b4cc-333bb34c97e7",
      "isHook": false,
      "skipped": false
    },
    {
      "title": "1 * 1 should be 1",
      "fullTitle": "functions multiply 1 * 1 should be 1",
      "timedOut": false,
      "duration": 0,
      "state": "passed",
      "speed": "fast",
      "pass": true,
      "fail": false,
      "pending": false,
      "code": "assert.equal(1, calculate.multiply(1, 1))",
      "err": {},
      "isRoot": false,
      "uuid": "01448367-c884-401b-9064-434186532122",
      "parentUUID": "feae6e19-6e35-43f5-a550-f3871184b736",
      "isHook": false,
      "skipped": false
    },
    {
      "title": "1 / 1 should be 1",
      "fullTitle": "functions devide 1 / 1 should be 1",
      "timedOut": false,
      "duration": 0,
      "state": "passed",
      "speed": "fast",
      "pass": true,
      "fail": false,
      "pending": false,
      "code": "assert.equal(1, calculate.devide(1, 1))",
      "err": {},
      "isRoot": false,
      "uuid": "e3c8d341-4106-4b14-a662-d437d6df8754",
      "parentUUID": "6aaa5464-4c48-43f6-b92d-de570a16bf33",
      "isHook": false,
      "skipped": false
    },
    {
      "title": "1 / 0 should be 0",
      "fullTitle": "functions devide by zero 1 / 0 should be 0",
      "timedOut": false,
      "duration": 1,
      "state": "passed",
      "speed": "fast",
      "pass": true,
      "fail": false,
      "pending": false,
      "code": "assert.equal(0, calculate.devide(1, 0))",
      "err": {},
      "isRoot": false,
      "uuid": "28d233e3-de7d-46d1-bf7e-50043c7264e9",
      "parentUUID": "5bda5007-3acb-4c3a-b3db-51d372b68c19",
      "isHook": false,
      "skipped": false
    }
  ],
  "allPending": [],
  "allPasses": [
    {
      "title": "1 + 1 should be 2",
      "fullTitle": "functions plus 1 + 1 should be 2",
      "timedOut": false,
      "duration": 0,
      "state": "passed",
      "speed": "fast",
      "pass": true,
      "fail": false,
      "pending": false,
      "code": "assert.equal(2, calculate.plus(1, 1))",
      "err": {},
      "isRoot": false,
      "uuid": "e5f37aea-b70a-45d1-a42b-3568e0ac8245",
      "parentUUID": "dfa208aa-51e1-4064-8003-c7da26c7f028",
      "isHook": false,
      "skipped": false
    },
    {
      "title": "1 - 1 should be 0",
      "fullTitle": "functions minus 1 - 1 should be 0",
      "timedOut": false,
      "duration": 0,
      "state": "passed",
      "speed": "fast",
      "pass": true,
      "fail": false,
      "pending": false,
      "code": "assert.equal(0, calculate.minus(1, 1))",
      "err": {},
      "isRoot": false,
      "uuid": "5c2c2c97-6ff2-4d14-83b8-b93b4c531f59",
      "parentUUID": "11aae8ac-c67c-44ff-b4cc-333bb34c97e7",
      "isHook": false,
      "skipped": false
    },
    {
      "title": "1 * 1 should be 1",
      "fullTitle": "functions multiply 1 * 1 should be 1",
      "timedOut": false,
      "duration": 0,
      "state": "passed",
      "speed": "fast",
      "pass": true,
      "fail": false,
      "pending": false,
      "code": "assert.equal(1, calculate.multiply(1, 1))",
      "err": {},
      "isRoot": false,
      "uuid": "01448367-c884-401b-9064-434186532122",
      "parentUUID": "feae6e19-6e35-43f5-a550-f3871184b736",
      "isHook": false,
      "skipped": false
    },
    {
      "title": "1 / 1 should be 1",
      "fullTitle": "functions devide 1 / 1 should be 1",
      "timedOut": false,
      "duration": 0,
      "state": "passed",
      "speed": "fast",
      "pass": true,
      "fail": false,
      "pending": false,
      "code": "assert.equal(1, calculate.devide(1, 1))",
      "err": {},
      "isRoot": false,
      "uuid": "e3c8d341-4106-4b14-a662-d437d6df8754",
      "parentUUID": "6aaa5464-4c48-43f6-b92d-de570a16bf33",
      "isHook": false,
      "skipped": false
    },
    {
      "title": "1 / 0 should be 0",
      "fullTitle": "functions devide by zero 1 / 0 should be 0",
      "timedOut": false,
      "duration": 1,
      "state": "passed",
      "speed": "fast",
      "pass": true,
      "fail": false,
      "pending": false,
      "code": "assert.equal(0, calculate.devide(1, 0))",
      "err": {},
      "isRoot": false,
      "uuid": "28d233e3-de7d-46d1-bf7e-50043c7264e9",
      "parentUUID": "5bda5007-3acb-4c3a-b3db-51d372b68c19",
      "isHook": false,
      "skipped": false
    }
  ],
  "allFailures": [],
  "copyrightYear": 2019
}